TCGA_pancancer_survival
…
Note that any generated files, e.g. HTML, png, CSS, etc., are not included in this status report because it is ok for generated content to have uncommitted changes.

There are no past versions. Publish this analysis with wflow_publish() to start tracking its development.

Introduction

This script summarize the results from the TCGA pancancer analysis and pick the cancers with good performance for visualization

Pancancer analysis results and store files log

survival checking tibble

surv_tib_check

# A tibble: 55 × 8
   cancer kernel_type data_type       c method surv_pv sample_size min_clust_size
   <chr>  <chr>       <chr>       <dbl> <chr>    <dbl>       <dbl>          <dbl>
 1 BLCA   diff_kernel Integration     6 SNF    0.00102         391             51
 2 BLCA   diff_kernel Integration     5 SNF    0.00136         391             61
 3 BLCA   kernel      Integration     5 SNF    0.00213         391             58
 4 BLCA   kernel      Integration     6 SNF    0.00265         391             50
 5 BLCA   kernel      Integration     4 SNF    0.00556         391             69
 6 BLCA   diff_kernel Integration     4 SNF    0.00790         391             70
 7 BLCA   kernel      Integration     3 cimlr  0.0109          391             50
 8 BLCA   kernel      Integration     6 cimlr  0.0133          391             24
 9 BLCA   kernel      Integration     7 SNF    0.0154          391             46
10 BLCA   kernel      Integration     4 cimlr  0.0158          391             51
# … with 45 more rows
…
